%YAML 1.1
%TAG !u! tag:unity3d.com,2011:
--- !u!74 &7400000
AnimationClip:
  m_ObjectHideFlags: 0
  m_PrefabParentObject: {fileID: 0}
  m_PrefabInternal: {fileID: 0}
  m_Name: MotionSensorSonarAnim
  serializedVersion: 6
  m_Legacy: 0
  m_Compressed: 0
  m_UseHighQualityCurve: 1
  m_RotationCurves: []
  m_CompressedRotationCurves: []
  m_EulerCurves: []
  m_PositionCurves: []
  m_ScaleCurves:
  - curve:
      serializedVersion: 2
      m_Curve:
      - serializedVersion: 2
        time: 0.16666667
        value: {x: 0.3, y: 0.3, z: 1}
        inSlope: {x: 0, y: 0, z: 0}
        outSlope: {x: 0, y: 0, z: 0}
        tangentMode: 0
      - serializedVersion: 2
        time: 0.33333334
        value: {x: 0.4, y: 0.4, z: 1}
        inSlope: {x: 0.6, y: 0.6, z: 0}
        outSlope: {x: 0.6, y: 0.6, z: 0}
        tangentMode: 0
      - serializedVersion: 2
        time: 0.5
        value: {x: 0.5, y: 0.5, z: 1}
        inSlope: {x: 1.1999998, y: 1.1999998, z: 0}
        outSlope: {x: 1.1999998, y: 1.1999998, z: 0}
        tangentMode: 0
      - serializedVersion: 2
        time: 0.6666667
        value: {x: 0.8, y: 0.8, z: 1}
        inSlope: {x: 1.5000001, y: 1.5000001, z: 0}
        outSlope: {x: 1.5000001, y: 1.5000001, z: 0}
        tangentMode: 0
      - serializedVersion: 2
        time: 0.8333333
        value: {x: 1, y: 1, z: 1}
        inSlope: {x: 1.2000002, y: 1.2000002, z: 0}
        outSlope: {x: 1.2000002, y: 1.2000002, z: 0}
        tangentMode: 0
      - serializedVersion: 2
        time: 1
        value: {x: 1.2, y: 1.2, z: 1}
        inSlope: {x: 0.8999999, y: 0.8999999, z: 0}
        outSlope: {x: 0.8999999, y: 0.8999999, z: 0}
        tangentMode: 0
      - serializedVersion: 2
        time: 1.1666666
        value: {x: 1.3, y: 1.3, z: 1}
        inSlope: {x: 0.5999997, y: 0.5999997, z: 0}
        outSlope: {x: 0.5999997, y: 0.5999997, z: 0}
        tangentMode: 0
      - serializedVersion: 2
        time: 1.3333334
        value: {x: 1.4, y: 1.4, z: 1}
        inSlope: {x: 0, y: 0, z: 0}
        outSlope: {x: 0, y: 0, z: 0}
        tangentMode: 0
      m_PreInfinity: 2
      m_PostInfinity: 2
      m_RotationOrder: 4
    path: 
  m_FloatCurves: []
  m_PPtrCurves:
  - curve:
    - time: 0
      value: {fileID: 21300000, guid: bd9e0056e268a5d4aaccf60221b19346, type: 3}
    - time: 0.16666667
      value: {fileID: 21300000, guid: 77c99fea339358c45adfbfb37a4e2d37, type: 3}
    - time: 0.33333334
      value: {fileID: 21300000, guid: 6e6f92999f9016443955e05a8c0a789b, type: 3}
    - time: 0.5
      value: {fileID: 21300000, guid: adc2c34a06e208341804eafdb3d7fda9, type: 3}
    - time: 0.6666667
      value: {fileID: 21300000, guid: 77c99fea339358c45adfbfb37a4e2d37, type: 3}
    - time: 0.8333333
      value: {fileID: 21300000, guid: bd9e0056e268a5d4aaccf60221b19346, type: 3}
    - time: 1
      value: {fileID: 21300000, guid: 77c99fea339358c45adfbfb37a4e2d37, type: 3}
    - time: 1.1666666
      value: {fileID: 21300000, guid: 6e6f92999f9016443955e05a8c0a789b, type: 3}
    - time: 1.3333334
      value: {fileID: 21300000, guid: 77c99fea339358c45adfbfb37a4e2d37, type: 3}
    attribute: m_Sprite
    path: 
    classID: 212
    script: {fileID: 0}
  m_SampleRate: 6
  m_WrapMode: 0
  m_Bounds:
    m_Center: {x: 0, y: 0, z: 0}
    m_Extent: {x: 0, y: 0, z: 0}
  m_ClipBindingConstant:
    genericBindings:
    - path: 0
      attribute: 3
      script: {fileID: 0}
      classID: 4
      customType: 0
      isPPtrCurve: 0
    - path: 0
      attribute: 0
      script: {fileID: 0}
      classID: 212
      customType: 23
      isPPtrCurve: 1
    pptrCurveMapping:
    - {fileID: 21300000, guid: bd9e0056e268a5d4aaccf60221b19346, type: 3}
    - {fileID: 21300000, guid: 77c99fea339358c45adfbfb37a4e2d37, type: 3}
    - {fileID: 21300000, guid: 6e6f92999f9016443955e05a8c0a789b, type: 3}
    - {fileID: 21300000, guid: adc2c34a06e208341804eafdb3d7fda9, type: 3}
    - {fileID: 21300000, guid: 77c99fea339358c45adfbfb37a4e2d37, type: 3}
    - {fileID: 21300000, guid: bd9e0056e268a5d4aaccf60221b19346, type: 3}
    - {fileID: 21300000, guid: 77c99fea339358c45adfbfb37a4e2d37, type: 3}
    - {fileID: 21300000, guid: 6e6f92999f9016443955e05a8c0a789b, type: 3}
    - {fileID: 21300000, guid: 77c99fea339358c45adfbfb37a4e2d37, type: 3}
  m_AnimationClipSettings:
    serializedVersion: 2
    m_AdditiveReferencePoseClip: {fileID: 0}
    m_AdditiveReferencePoseTime: 0
    m_StartTime: 0
    m_StopTime: 1.5
    m_OrientationOffsetY: 0
    m_Level: 0
    m_CycleOffset: 0
    m_HasAdditiveReferencePose: 0
    m_LoopTime: 0
    m_LoopBlend: 0
    m_LoopBlendOrientation: 0
    m_LoopBlendPositionY: 0
    m_LoopBlendPositionXZ: 0
    m_KeepOriginalOrientation: 0
    m_KeepOriginalPositionY: 1
    m_KeepOriginalPositionXZ: 0
    m_HeightFromFeet: 0
    m_Mirror: 0
  m_EditorCurves:
  - curve:
      serializedVersion: 2
      m_Curve:
      - serializedVersion: 2
        time: 0.16666667
        value: 0.3
        inSlope: 0
        outSlope: 0
        tangentMode: 136
      - serializedVersion: 2
        time: 0.33333334
        value: 0.4
        inSlope: 0.6
        outSlope: 0.6
        tangentMode: 136
      - serializedVersion: 2
        time: 0.5
        value: 0.5
        inSlope: 1.1999998
        outSlope: 1.1999998
        tangentMode: 136
      - serializedVersion: 2
        time: 0.6666667
        value: 0.8
        inSlope: 1.5000001
        outSlope: 1.5000001
        tangentMode: 136
      - serializedVersion: 2
        time: 0.8333333
        value: 1
        inSlope: 1.2000002
        outSlope: 1.2000002
        tangentMode: 136
      - serializedVersion: 2
        time: 1
        value: 1.2
        inSlope: 0.8999999
        outSlope: 0.8999999
        tangentMode: 136
      - serializedVersion: 2
        time: 1.1666666
        value: 1.3
        inSlope: 0.5999997
        outSlope: 0.5999997
        tangentMode: 136
      - serializedVersion: 2
        time: 1.3333334
        value: 1.4
        inSlope: 0
        outSlope: 0
        tangentMode: 136
      m_PreInfinity: 2
      m_PostInfinity: 2
      m_RotationOrder: 4
    attribute: m_LocalScale.x
    path: 
    classID: 4
    script: {fileID: 0}
  - curve:
      serializedVersion: 2
      m_Curve:
      - serializedVersion: 2
        time: 0.16666667
        value: 0.3
        inSlope: 0
        outSlope: 0
        tangentMode: 136
      - serializedVersion: 2
        time: 0.33333334
        value: 0.4
        inSlope: 0.6
        outSlope: 0.6
        tangentMode: 136
      - serializedVersion: 2
        time: 0.5
        value: 0.5
        inSlope: 1.1999998
        outSlope: 1.1999998
        tangentMode: 136
      - serializedVersion: 2
        time: 0.6666667
        value: 0.8
        inSlope: 1.5000001
        outSlope: 1.5000001
        tangentMode: 136
      - serializedVersion: 2
        time: 0.8333333
        value: 1
        inSlope: 1.2000002
        outSlope: 1.2000002
        tangentMode: 136
      - serializedVersion: 2
        time: 1
        value: 1.2
        inSlope: 0.8999999
        outSlope: 0.8999999
        tangentMode: 136
      - serializedVersion: 2
        time: 1.1666666
        value: 1.3
        inSlope: 0.5999997
        outSlope: 0.5999997
        tangentMode: 136
      - serializedVersion: 2
        time: 1.3333334
        value: 1.4
        inSlope: 0
        outSlope: 0
        tangentMode: 136
      m_PreInfinity: 2
      m_PostInfinity: 2
      m_RotationOrder: 4
    attribute: m_LocalScale.y
    path: 
    classID: 4
    script: {fileID: 0}
  - curve:
      serializedVersion: 2
      m_Curve:
      - serializedVersion: 2
        time: 0.16666667
        value: 1
        inSlope: 0
        outSlope: 0
        tangentMode: 136
      - serializedVersion: 2
        time: 0.33333334
        value: 1
        inSlope: 0
        outSlope: 0
        tangentMode: 136
      - serializedVersion: 2
        time: 0.5
        value: 1
        inSlope: 0
        outSlope: 0
        tangentMode: 136
      - serializedVersion: 2
        time: 0.6666667
        value: 1
        inSlope: 0
        outSlope: 0
        tangentMode: 136
      - serializedVersion: 2
        time: 0.8333333
        value: 1
        inSlope: 0
        outSlope: 0
        tangentMode: 136
      - serializedVersion: 2
        time: 1
        value: 1
        inSlope: 0
        outSlope: 0
        tangentMode: 136
      - serializedVersion: 2
        time: 1.1666666
        value: 1
        inSlope: 0
        outSlope: 0
        tangentMode: 136
      - serializedVersion: 2
        time: 1.3333334
        value: 1
        inSlope: 0
        outSlope: 0
        tangentMode: 136
      m_PreInfinity: 2
      m_PostInfinity: 2
      m_RotationOrder: 4
    attribute: m_LocalScale.z
    path: 
    classID: 4
    script: {fileID: 0}
  m_EulerEditorCurves: []
  m_HasGenericRootTransform: 0
  m_HasMotionFloatCurves: 0
  m_GenerateMotionCurves: 0
  m_IsEmpty: 0
  m_Events: []
